<svg xmlns="http://www.w3.org/2000/svg" width="32" height="32" fill="currentColor">
  <path fill-rule="evenodd" d="M21.333 4H10.667A6.667 6.667 0 0 0 4 10.667v10.666A6.667 6.667 0 0 0 10.667 28h10.666A6.667 6.667 0 0 0 28 21.333V10.667A6.667 6.667 0 0 0 21.333 4m4.334 17.333a4.347 4.347 0 0 1-4.334 4.334H10.667a4.347 4.347 0 0 1-4.334-4.334V10.667a4.347 4.347 0 0 1 4.334-4.334h10.666a4.347 4.347 0 0 1 4.334 4.334zM22.333 11a1.333 1.333 0 1 0 0-2.667 1.333 1.333 0 0 0 0 2.667M16 10a6 6 0 1 0 6 6 5.986 5.986 0 0 0-6-6m-3.667 6a3.667 3.667 0 1 0 7.334 0 3.667 3.667 0 0 0-7.334 0" clip-rule="evenodd"/>
</svg>
